<?xml version="1.0" standalone="no"?>
<!DOCTYPE svg PUBLIC "-//W3C//DTD SVG 1.1//EN" "http://www.w3.org/Graphics/SVG/1.1/DTD/svg11.dtd" >
<svg xmlns="http://www.w3.org/2000/svg">
<metadata>Generated by IcoMoon</metadata>
<defs>
<font id="bukuwarung" horiz-adv-x="1024">
<font-face units-per-em="1024" ascent="1013.76" descent="-10.24" />
<missing-glyph horiz-adv-x="1024" />
<glyph unicode="&#x20;" horiz-adv-x="512" d="" />
<glyph unicode="&#xe900;" glyph-name="chevron-down" d="M21.353 783.151c-13.194-13.233-21.353-31.493-21.353-51.659s8.158-38.426 21.354-51.66l438.987-438.987c13.234-13.193 31.493-21.35 51.659-21.35s38.425 8.157 51.66 21.351l438.987 438.987c13.194 13.233 21.353 31.493 21.353 51.659s-8.158 38.426-21.354 51.66l0.002-0.002c-13.233 13.194-31.493 21.353-51.658 21.353s-38.426-8.158-51.66-21.354l-387.329-387.329-387.331 387.331c-13.233 13.194-31.493 21.353-51.659 21.353s-38.426-8.158-51.66-21.354l0.002 0.002z" />
<glyph unicode="&#xe901;" glyph-name="copy" d="M465.455 698.181c-76.568 0-139.636-63.069-139.636-139.636v-418.909c0-76.568 63.070-139.636 139.636-139.636h418.909c76.568 0 139.636 63.069 139.636 139.636v418.909c0 76.567-63.068 139.636-139.636 139.636zM465.455 605.090h418.909c26.26 0 46.545-20.287 46.545-46.545v-418.909c0-26.261-20.285-46.545-46.545-46.545h-418.909c-26.259 0-46.545 20.286-46.545 46.545v418.909c0 26.258 20.288 46.545 46.545 46.545zM139.636 1023.999c-37.016 0-72.553-14.734-98.727-40.909s-40.909-61.712-40.909-98.727v-418.909c0-37.015 14.736-72.553 40.909-98.727 26.175-26.177 61.712-40.909 98.727-40.909h46.545c25.706 0 46.545 20.839 46.545 46.545v0c0 25.706-20.839 46.545-46.545 46.545v0h-46.545c-12.363 0-24.168 4.895-32.909 13.636-8.743 8.744-13.636 20.549-13.636 32.909v418.909c0 12.363 4.895 24.168 13.636 32.909s20.547 13.636 32.909 13.636h418.909c12.36 0 24.165-4.893 32.909-13.636 8.742-8.741 13.636-20.546 13.636-32.909v-46.545c0-25.706 20.839-46.545 46.545-46.545v0c25.706 0 46.545 20.839 46.545 46.545v0 46.545c0 37.015-14.732 72.553-40.909 98.727-26.175 26.173-61.712 40.909-98.727 40.909z" />
<glyph unicode="&#xe902;" glyph-name="Map" horiz-adv-x="853" d="M426.625 1024c-113.143 0-221.746-44.996-301.75-125s-124.875-188.482-124.875-301.625c0-167.618 104.027-313.619 203.625-418.75s199.375-171.5 199.375-171.5c6.642-4.471 14.822-7.137 23.625-7.137s16.983 2.666 23.778 7.234l-0.153-0.097c0 0 99.777 66.369 199.375 171.5s203.625 251.132 203.625 418.75c0 113.142-44.865 221.621-124.875 301.625-80.003 80.004-188.607 125-301.75 125zM426.625 938.625c90.544 0 177.352-35.851 241.375-99.875 64.028-64.024 100-150.831 100-241.375 0-131.046-87.973-262.465-180.375-360-80.578-85.055-141.72-125.487-161-138.875-19.28 13.388-80.422 53.82-161 138.875-92.402 97.535-180.375 228.954-180.375 360 0 90.544 35.976 177.351 100 241.375s150.831 99.875 241.375 99.875zM426.625 768c-93.751 0-170.625-76.874-170.625-170.625s76.874-170.75 170.625-170.75c93.751 0 170.625 76.999 170.625 170.75s-76.874 170.625-170.625 170.625zM426.625 682.625c47.634 0 85.375-37.616 85.375-85.25s-37.741-85.375-85.375-85.375c-47.634 0-85.375 37.741-85.375 85.375s37.741 85.25 85.375 85.25z" />
<glyph unicode="&#xe903;" glyph-name="Notif" horiz-adv-x="931" d="M465.412 1024.001c-86.41 0-169.394-34.37-230.495-95.472s-95.335-144.086-95.335-230.495c0-156.287-33.299-252.605-64.239-309.328s-54.692-70.922-54.692-70.922c-12.526-8.475-20.651-22.631-20.651-38.684 0-25.668 20.771-46.484 46.421-46.558h837.974c25.657 0.074 46.428 20.89 46.428 46.558 0 16.054-8.125 30.209-20.487 38.58l-0.164 0.105c0 0-23.752 14.199-54.692 70.922s-64.239 153.040-64.239 309.328c0 86.409-34.365 169.394-95.472 230.495-61.091 61.052-143.988 95.472-230.359 95.472zM465.412 930.848c61.752 0 120.959-24.53 164.62-68.194 43.668-43.664 68.194-102.868 68.194-164.62 0-169.588 36.532-282.627 75.423-353.927 6.911-12.671 8.078-8.161 15.139-18.412h-646.751c7.061 10.252 8.228 5.742 15.139 18.412 38.891 71.3 75.422 184.338 75.422 353.927 0 61.751 24.529 120.955 68.194 164.62s102.868 68.194 164.62 68.194zM396.808 137.889c-3.571 0.983-7.671 1.547-11.903 1.547-8.629 0-16.71-2.348-23.638-6.439l0.217 0.118c-13.951-8.214-23.165-23.157-23.165-40.252 0-8.582 2.322-16.621 6.372-23.524l-0.119 0.219c12.276-21.168 29.949-38.799 51.145-51.009 21.19-12.196 45.225-18.549 69.694-18.549s48.504 6.352 69.694 18.549c21.196 12.21 38.869 29.841 51.145 51.009 3.931 6.684 6.253 14.723 6.253 23.305 0 17.095-9.215 32.038-22.948 40.133l-0.217 0.119c-6.708 3.968-14.784 6.312-23.407 6.312-17.119 0-32.080-9.24-40.168-23.006l-0.119-0.219c-4.093-7.058-9.976-12.838-17.048-16.912-7.078-4.074-15.032-6.274-23.186-6.274s-16.108 2.2-23.186 6.274c-7.073 4.074-12.955 9.854-17.048 16.912-6.202 10.582-16.18 18.382-28.042 21.61l-0.326 0.076z" />
<glyph unicode="&#xe904;" glyph-name="phone" horiz-adv-x="1022" d="M139.977 1023.993c-19.449-0.018-38.711-4.182-56.499-12.039s-33.812-19.29-46.923-33.653c-13.112-14.364-23.068-31.23-29.276-49.659s-8.454-38.089-6.703-57.457c-0.001-0.102-0.001-0.222-0.001-0.342s0-0.241 0.001-0.361v0.018c16.084-151.463 67.6-297.035 150.346-424.909 0.054-0.085 0.083-0.189 0.137-0.274 0.033-0.052 0.104-0.085 0.137-0.137 75.286-118.346 175.631-218.724 293.989-293.989 127.393-82.609 272.315-134.081 423.267-150.483-0.010-0.007 0.269-0.056 0.549-0.103l0.272-0.037c19.443-1.766 39.112 0.588 57.594 6.84 18.484 6.253 35.43 16.243 49.796 29.413 14.372 13.185 25.841 29.311 33.653 47.197 7.815 17.867 11.849 37.11 11.765 56.636v138.718c0.851 34.332-11.034 67.909-33.243 94.12-22.205 26.195-53.267 43.356-87.28 48.154-0.061 0-0.134 0-0.207 0s-0.145 0-0.218 0h0.011c-41.286 5.448-81.895 15.546-120.93 30.1h-0.14c-25.026 9.38-52.24 11.456-78.384 5.883-26.194-5.586-50.186-18.531-69.222-37.347 0.077 0.174 0.031 0.084-0.014-0.006l-0.122-0.268-30.781-30.78c-86.487 55.039-159.197 127.747-214.233 214.233l30.781 30.781c0.358 0.168 0.448 0.213 0.538 0.259l-0.264-0.123c18.829 19.042 31.761 43.033 37.347 69.222 5.577 26.147 3.497 53.358-5.883 78.388v0.137c-14.552 39.028-24.65 79.638-30.097 120.934 0 0.061 0 0.133 0 0.205s0 0.144 0 0.216v-0.011c-4.756 33.648-21.705 64.438-47.47 86.596s-58.634 34.262-92.615 33.927zM139.977 930.557h140.086c0.061 0 0.133 0 0.205 0s0.144 0 0.216 0h-0.011c11.341 0.112 22.318-3.959 30.917-11.355s14.282-17.634 15.869-28.865c6.391-48.128 18.184-95.418 35.158-140.907 0-0.020 0-0.044 0-0.068s0-0.048 0-0.072v0.004c3.143-8.36 3.778-17.396 1.915-26.129-1.863-8.735-6.169-16.769-12.449-23.12l-59.099-59.099c-8.428-8.447-13.64-20.107-13.64-32.984 0-8.498 2.27-16.466 6.236-23.33l-0.12 0.225c70.627-124.208 173.476-227.052 297.682-297.682 6.639-3.846 14.607-6.116 23.105-6.116 12.877 0 24.537 5.212 32.985 13.641l59.098 59.098c6.361 6.287 14.39 10.587 23.12 12.449 8.747 1.865 17.77 1.227 26.129-1.915 0.021 0 0.045 0 0.070 0s0.049 0 0.074 0h-0.004c45.529-16.987 92.869-28.772 141.043-35.158 0.041-0.006 0.098 0.006 0.14 0 0.098-0.013 0.175-0.126 0.273-0.14 11.189-1.686 21.264-7.361 28.592-16.006 7.405-8.74 11.365-19.866 11.081-31.328-0.002-0.163-0.003-0.355-0.003-0.547s0.001-0.385 0.003-0.577v0.029-140.086c0-0.041 0-0.089 0-0.137s0-0.096 0-0.144v0.007c0.028-6.487-1.36-12.917-3.967-18.879-2.596-5.942-6.426-11.337-11.218-15.732-4.792-4.371-10.434-7.643-16.553-9.713 0-0.021 0-0.045 0-0.070s0-0.049 0-0.074v0.004c-6.102-2.066-12.601-2.753-19.016-2.189-136.189 14.913-267.014 61.451-381.959 135.988-0.091 0.092-0.18 0.181-0.27 0.269l-0.004 0.004c-107.040 68.021-197.791 158.767-265.807 265.808-0.092 0.093-0.181 0.182-0.271 0.271l-0.003 0.003c-74.801 115.467-121.344 246.939-135.981 383.731-0.583 6.456 0.12 13.008 2.189 19.152 2.070 6.146 5.342 11.766 9.713 16.553s9.802 8.598 15.732 11.218c5.933 2.62 12.26 3.961 18.742 3.967z" />
<glyph unicode="&#xe905;" glyph-name="search" d="M460.749 1024c-253.858 0-460.749-206.891-460.749-460.749 0-253.86 206.892-460.749 460.749-460.749 253.859 0 460.749 206.89 460.749 460.749 0 253.858-206.889 460.749-460.749 460.749zM460.749 921.531c198.525 0 358.401-159.757 358.401-358.281 0-198.526-159.875-358.401-358.401-358.401-198.524 0-358.281 159.875-358.281 358.401 0 198.523 159.757 358.281 358.281 358.281zM750.038 325.197c-0.010 0-0.021 0-0.032 0-14.139 0-26.939-5.732-36.204-14.998v0c-9.286-9.268-15.031-22.081-15.031-36.236s5.745-26.968 15.030-36.235l222.697-222.697c9.268-9.286 22.081-15.031 36.236-15.031s26.968 5.745 36.235 15.030l0.001 0.001c9.286 9.268 15.031 22.081 15.031 36.236s-5.745 26.968-15.030 36.235l-222.697 222.697c-9.265 9.267-22.065 14.998-36.204 14.998-0.011 0-0.023 0-0.034 0h0.002z" />
<glyph unicode="&#xe906;" glyph-name="upload" horiz-adv-x="1229" d="M614.542 563.23c-28.244-0.028-51.133-22.917-51.162-51.159v-460.909c0.028-28.245 22.917-51.134 51.159-51.162h0.003c28.245 0.028 51.133 22.917 51.162 51.159v460.909c-0.028 28.244-22.917 51.133-51.159 51.162h-0.003zM443.652 1023.687c-69.62-2.566-137.722-20.876-199.246-53.562s-114.792-78.775-155.886-135.031c-41.093-56.257-69.042-121.243-81.469-189.794-12.428-68.55-9.128-138.895 9.602-205.998s52.439-129.187 98.573-181.392c9.43-10.654 23.138-17.336 38.407-17.336 13.030 0 24.924 4.867 33.963 12.881l-0.053-0.046c10.654 9.43 17.336 23.138 17.336 38.407 0 13.031-4.867 24.924-12.882 33.963l0.046-0.053c-35.883 40.606-62.099 88.839-76.668 141.033s-17.168 107.069-7.502 160.387c9.666 53.319 31.351 103.726 63.315 147.484s73.375 79.75 121.228 105.174c47.854 25.424 100.834 39.564 154.986 41.56s108.092-8.323 157.686-30.157c49.595-21.834 93.637-54.587 128.73-95.872 35.1-41.286 60.253-89.919 73.817-142.383 5.891-22.264 25.855-38.409 49.59-38.409 0.025 0 0.051 0 0.076 0h64.511c45.522-0.030 89.654-15.262 125.579-43.21 35.931-27.948 61.536-67.057 72.767-111.176 11.23-44.113 7.397-90.604-10.802-132.331-18.192-41.719-49.754-76.182-89.721-97.973-16.039-8.86-26.722-25.671-26.722-44.976 0-9.038 2.341-17.529 6.45-24.9l-0.133 0.26c8.87-16.004 25.662-26.659 44.942-26.659 8.992 0 17.442 2.317 24.786 6.387l-0.262-0.133c59.927 32.673 107.297 84.465 134.581 147.034 27.292 62.574 33.043 132.497 16.204 198.646-16.838 66.146-55.341 124.777-109.225 166.689-53.875 41.912-120.183 64.62-188.444 64.665h-34.958c-18.691 51.538-39.355 102.836-75.017 144.783-45.12 53.082-101.727 95.257-165.488 123.328s-133.076 41.274-202.697 38.709zM578.384 548.227l-204.947-204.797c-9.28-9.27-15.021-22.081-15.021-36.233s5.741-26.964 15.020-36.233l0.001-0.001c9.27-9.28 22.081-15.021 36.233-15.021s26.964 5.741 36.233 15.020l168.639 168.789 168.639-168.789c9.27-9.28 22.081-15.021 36.233-15.021s26.964 5.741 36.233 15.020l0.001 0.001c9.28 9.27 15.021 22.081 15.021 36.233s-5.741 26.964-15.020 36.233l-204.948 204.798c-9.263 9.234-22.044 14.944-36.158 14.944s-26.896-5.71-36.16-14.945l0.001 0.001z" />
<glyph unicode="&#xe907;" glyph-name="X" d="M950.857 1024.057c-0.014 0-0.030 0-0.046 0-20.201 0-38.489-8.189-51.725-21.428l-877.714-877.714c-13.267-13.241-21.475-31.548-21.475-51.771s8.208-38.53 21.473-51.77l0.001-0.001c13.241-13.267 31.548-21.475 51.771-21.475s38.53 8.208 51.77 21.473l877.715 877.715c13.267 13.241 21.475 31.548 21.475 51.771s-8.208 38.53-21.473 51.77l-0.001 0.001c-13.237 13.24-31.525 21.429-51.725 21.429-0.016 0-0.032 0-0.049 0h0.003zM73.143 1024.057c-0.014 0-0.030 0-0.046 0-20.201 0-38.488-8.189-51.725-21.428v0c-13.267-13.241-21.475-31.548-21.475-51.771s8.208-38.53 21.473-51.77l877.715-877.715c13.241-13.267 31.548-21.475 51.771-21.475s38.53 8.208 51.77 21.473l0.001 0.001c13.267 13.241 21.475 31.548 21.475 51.771s-8.208 38.53-21.473 51.77l-877.715 877.715c-13.237 13.24-31.525 21.429-51.725 21.429-0.016 0-0.032 0-0.048 0h0.002z" />
<glyph unicode="&#xe908;" glyph-name="add" d="M511.994 1023.956c-0.015 0-0.032 0-0.050 0-35.311 0-63.943-28.597-64-63.895v-896.106c0.057-35.303 28.689-63.9 64-63.9 0.018 0 0.035 0 0.053 0h-0.003c0.015 0 0.032 0 0.050 0 35.311 0 63.943 28.597 64 63.895v896.106c-0.057 35.303-28.689 63.9-64 63.9-0.018 0-0.035 0-0.053 0h0.003zM63.944 576.056c-35.303-0.057-63.9-28.689-63.9-64 0-0.018 0-0.035 0-0.053v0.003c0-0.015 0-0.032 0-0.050 0-35.311 28.597-63.943 63.895-64h896.106c35.303 0.057 63.9 28.689 63.9 64 0 0.018 0 0.035 0 0.053v-0.003c0 0.015 0 0.032 0 0.050 0 35.311-28.597 63.943-63.895 64h-0.005z" />
<glyph unicode="&#xe909;" glyph-name="calendar" horiz-adv-x="931" d="M139.681 930.904c-76.567 0-139.635-63.068-139.635-139.635v-651.677c0-76.568 63.071-139.635 139.635-139.635h651.54c76.562 0 139.635 63.066 139.635 139.635v651.677c0 76.569-63.071 139.635-139.635 139.635zM139.681 837.768h651.54c26.249 0 46.636-20.244 46.636-46.5v-651.677c0-26.258-20.385-46.5-46.636-46.5h-651.54c-26.26 0-46.636 20.24-46.636 46.5v651.677c0 26.258 20.378 46.5 46.636 46.5zM651.586 1024.040c-25.687-0.026-46.5-20.855-46.5-46.545 0-0.032 0-0.064 0-0.096v0.005-186.135c0.026-25.671 20.829-46.474 46.497-46.5h0.002c0.027 0 0.059 0 0.091 0 25.69 0 46.519 20.813 46.545 46.497v186.137c0 0.027 0 0.059 0 0.091 0 25.706-20.839 46.545-46.545 46.545-0.032 0-0.064 0-0.096 0h0.005zM279.316 1024.040c-0.027 0-0.059 0-0.091 0-25.706 0-46.545-20.839-46.545-46.545 0-0.032 0-0.064 0-0.096v0.005-186.135c0.026-25.687 20.855-46.5 46.545-46.5 0.032 0 0.064 0 0.096 0h-0.005c25.671 0.026 46.474 20.829 46.5 46.497v186.137c0 0.027 0 0.059 0 0.091 0 25.69-20.813 46.519-46.497 46.545h-0.002zM46.545 651.634c-25.671-0.026-46.474-20.829-46.5-46.497v-0.002c0-0.027 0-0.059 0-0.091 0-25.69 20.813-46.519 46.497-46.545h837.814c25.687 0.026 46.5 20.855 46.5 46.545 0 0.032 0 0.064 0 0.096v-0.005c-0.026 25.671-20.829 46.474-46.497 46.5h-0.002z" />
<glyph unicode="&#xe90a;" glyph-name="chevron-left" d="M783.151 1002.647c-13.232 13.194-31.493 21.353-51.659 21.353s-38.426-8.158-51.66-21.354l-438.987-438.987c-13.192-13.234-21.35-31.493-21.35-51.659s8.157-38.425 21.351-51.66l438.987-438.987c13.232-13.194 31.493-21.353 51.659-21.353s38.426 8.158 51.66 21.354l-0.002-0.002c13.195 13.233 21.353 31.493 21.353 51.659s-8.158 38.426-21.354 51.66l-387.328 387.328 387.33 387.33c13.194 13.232 21.353 31.493 21.353 51.659s-8.158 38.426-21.354 51.66l0.002-0.002z" />
<glyph unicode="&#xe90b;" glyph-name="chevron-right" d="M240.848 21.353c13.232-13.194 31.493-21.353 51.659-21.353s38.426 8.158 51.66 21.354l438.987 438.987c13.192 13.234 21.35 31.493 21.35 51.659s-8.157 38.425-21.351 51.66l-438.987 438.987c-13.232 13.194-31.493 21.353-51.659 21.353s-38.426-8.158-51.66-21.354l0.002 0.002c-13.195-13.233-21.353-31.493-21.353-51.659s8.158-38.426 21.354-51.66l387.328-387.328-387.33-387.33c-13.194-13.232-21.353-31.493-21.353-51.659s8.158-38.426 21.354-51.66l-0.002 0.002z" />
<glyph unicode="&#xe90c;" glyph-name="chevron-up" d="M1002.647 240.849c13.194 13.232 21.353 31.493 21.353 51.659s-8.158 38.426-21.354 51.66l-438.987 438.987c-13.234 13.192-31.493 21.35-51.659 21.35s-38.425-8.157-51.66-21.351l-438.987-438.987c-13.194-13.232-21.353-31.493-21.353-51.659s8.158-38.426 21.354-51.66l-0.002 0.002c13.233-13.195 31.493-21.353 51.659-21.353s38.426 8.158 51.66 21.354l387.328 387.328 387.33-387.33c13.232-13.194 31.493-21.353 51.659-21.353s38.426 8.158 51.66 21.354l-0.002-0.002z" />
</font></defs></svg>